jsmessages,oro.datagrid.column_manager.filter.all,Tất cả,All,0
jsmessages,oro.datagrid.column_manager.filter.clear_search_tooltip,Xóa tìm kiếm nhanh,Clear Quick Search,0
jsmessages,oro.datagrid.column_manager.filter.search_placeholder,Tìm kiếm nhanh,Quick Search,0
jsmessages,oro.datagrid.column_manager.filter.select_all,Chọn tất cả,Select All,0
jsmessages,oro.datagrid.column_manager.filter.selected,Đã chọn,Selected,0
jsmessages,oro.datagrid.column_manager.reset,Đặt lại lưới,Reset Grid,0
jsmessages,oro.datagrid.column_manager.select_all,Chọn tất cả,Select All,0
jsmessages,oro.datagrid.column_manager.title,Cài đặt lưới,Grid Settings,0
jsmessages,oro.datagrid.column_manager.tooltip,Sử dụng thao tác kéo và thả để sắp xếp các mục,Use drag and drop to sort items,0
jsmessages,oro.datagrid.column_manager.unselect_all,Bỏ chọn tất cả,Unselect All,0
jsmessages,oro.datagrid.entityHint,Thực thể,Entities,0
jsmessages,oro.datagrid.export.fail.message,"Không thể bắt đầu xuất, vui lòng thử lại.","Could not start export, please try again.",0
jsmessages,oro.datagrid.export.max_limit_message,Số lượng bản ghi tối đa có thể được xuất cùng một lúc là {{ max_limit }}. <br/>Bạn có chắc chắn muốn xuất {{ total }} bản ghi không?,The maximum number of records that can be exported at once is {{ max_limit }}.<br/> Are you sure you want to export {{ total }} records?,0
jsmessages,oro.datagrid.export.success.message,Đã bắt đầu xuất thành công. Bạn sẽ nhận được thông báo qua email sau khi hoàn thành.,Export started successfully. You will receive email notification upon completion.,0
jsmessages,oro.datagrid.extension.export.label,Lưới xuất,Export Grid,0
jsmessages,oro.datagrid.extension.export.tooltip,"Với nút này, bạn sẽ xuất nội dung của lưới như nó xuất hiện cho bạn, với các bộ lọc và phân loại được áp dụng. Tất cả các trang sẽ được xuất.","With this button you will export the content of the grid as it appears to you, with filters and sorting applied. All pages will be exported.",0
jsmessages,oro.datagrid.grid_views.shared_by.label,Được chia sẻ bởi {{ name }},Shared by {{ name }},0
jsmessages,oro.datagrid.gridView.actions,Các tùy chọn,Options,0
jsmessages,oro.datagrid.gridView.all,Tất cả,All,0
jsmessages,oro.datagrid.gridView.created,Chế độ xem đã được tạo thành công,View has been successfully created,0
jsmessages,oro.datagrid.gridView.data_edited,Đã chỉnh sửa,Edited,0
jsmessages,oro.datagrid.gridView.default,Mặc định,Default,0
jsmessages,oro.datagrid.gridView.deleted,Chế độ xem đã được xóa thành công,View has been successfully deleted,0
jsmessages,oro.datagrid.gridView.error.not_found,Không tìm thấy chế độ xem,View not found,0
jsmessages,oro.datagrid.gridView.name,Tên,Name,0
jsmessages,oro.datagrid.gridView.save_name,Lưu,Save,0
jsmessages,oro.datagrid.gridView.updated,Chế độ xem đã được cập nhật thành công,View has been successfully updated,0
jsmessages,oro.datagrid.headerCell.selectAll.all,Tất cả,All,0
jsmessages,oro.datagrid.headerCell.selectAll.allVisible,Tất cả hiện lên,All visible,0
jsmessages,oro.datagrid.headerCell.selectAll.none,không gì cả,None,0
jsmessages,oro.datagrid.inline_editing.help,"<ul style=""margin-bottom: 0px;"">    <li><span style=""font-family: monospace"">Enter</span>, <span style=""font-family: monospace"">Shift + Enter</span> - Lưu và sửa ô trước/sau trong một cột</li>
 <li><span style=""font-family: monospace"">Tab</span>, <span style=""font-family: monospace"">Shift + Tab</span> - Lưu và sửa ô trước/sau trong một hàng</li>
 <li><span style=""font-family: monospace"">Alt + ←/↑/→/↓  </span> - Di chuyển sang ô khác</li>
 <li><span style=""font-family: monospace"">Ctrl + Enter</span> - Lưu và đóng</li>
 <li><span style=""font-family: monospace"">Escape</span> - Thoát</li>
</ul>","<ul style=""margin-bottom: 0px;"">    <li><span style=""font-family: monospace"">Enter</span>, <span style=""font-family: monospace"">Shift + Enter</span> - Save and edit next/previous cell in column</li>
	<li><span style=""font-family: monospace"">Tab</span>, <span style=""font-family: monospace"">Shift + Tab</span> - Save and edit next/previous cell in row</li>
	<li><span style=""font-family: monospace"">Alt + ←/↑/→/↓  </span> - Navigate between cells</li>
	<li><span style=""font-family: monospace"">Ctrl + Enter</span> - Save and close</li>
	<li><span style=""font-family: monospace"">Escape</span> - Quit</li>
</ul>",0
jsmessages,oro.datagrid.inline_editing.message.save_field.permission_denied,Bạn không được phép thay đổi trường {{ fieldLabel }}.,You do not have permission to change {{ fieldLabel }} field.,0
jsmessages,oro.datagrid.inline_editing.refresh_confirm_modal.title,Xác nhận,Confirmation,0
jsmessages,oro.datagrid.loading_failed_message,"Tải dữ liệu không thành công, hãy thử tải lại trang. Nếu sự cố xuất hiện lại, vui lòng liên hệ với quản trị viên của bạn.","Data loading failed, try reloading the page. If the issue appears again please contact your administrator.",0
jsmessages,oro.datagrid.mass_action.button_title,...,...,0
jsmessages,oro.datagrid.mass_action.delete.max_limit_message,Số lượng bản ghi tối đa có thể bị xóa cùng một lúc là {{ max_limit }}. <br/> Bạn có chắc chắn muốn xóa {{ max_limit }} bản ghi đầu tiên trong lựa chọn không?,The maximum number of records that can be deleted at once is {{ max_limit }}.<br/> Are you sure you want to delete first {{ max_limit }} records in the selection?,0
jsmessages,oro.datagrid.mass_action.delete.restricted_access_empty_message,Bạn không có quyền xóa bất kỳ bản ghi đã chọn nào.,You don't have permissions to delete any of the selected records.,0
jsmessages,oro.datagrid.mass_action.delete.restricted_access_message,Bạn có quyền xóa {{ deletable }} bản ghi trong số {{ selected }} được chọn. <br/> Bạn có chắc chắn muốn xóa chúng không?,You have permissions to delete  {{ deletable }} records out of {{ selected }} selected.<br/> Are you sure you want to delete them?,0
jsmessages,oro.datagrid.mass_action.delete.selected_message,Bạn đã chọn {{ selected }} bản ghi. <br/>Bạn có chắc chắn muốn xóa nó không? | Bạn đã chọn {{ selected }} bản ghi. <br/> Bạn có chắc chắn muốn xóa chúng không?,You have selected {{ selected }} record.<br/> Are you sure you want to delete it?|You have selected {{ selected }} records.<br/> Are you sure you want to delete them?,0
jsmessages,oro.datagrid.mass_action.title,Hành động hàng loạt,Mass Actions,0
jsmessages,oro.datagrid.name_modal.title,Chế độ hiển thị theo ô,Grid view,0
jsmessages,oro.datagrid.no.columns,Không có cột nào được định cấu hình cho lưới này,No columns configured for this grid,0
jsmessages,oro.datagrid.no.entities,Không có dữ liệu được tìm thấy,No records found,0
jsmessages,oro.datagrid.no.results,Không tìm thấy {{ entityHint }} nào phù hợp với tìm kiếm của bạn. Thử sửa đổi tiêu chí tìm kiếm của bạn ...,No {{ entityHint }} were found to match your search. Try modifying your search criteria...,0
jsmessages,oro.datagrid.not_number,Không phải là một con số,Not a number,0
jsmessages,oro.datagrid.pagination.label,Trang,Page,0
jsmessages,oro.datagrid.pagination.next,Kế tiếp,Next,0
jsmessages,oro.datagrid.pagination.prev,Trước đó,Prev,0
jsmessages,oro.datagrid.pagination.totalPages,trong tổng số {{ totalPages }},of {{ totalPages }},0
jsmessages,oro.datagrid.pagination.totalRecords,Tổng số bản ghi {{ totalRecords }},Total of {{ totalRecords }} records,0
jsmessages,oro.datagrid.pagination.totalRecordsShort,Tổng số bản ghi {{ totalRecords }},{{ totalRecords }} total records,0
jsmessages,oro.datagrid.pagination.visibleItems,Hiển thị {{ count }} của {{ total }} bản ghi,Showing {{ count }} of {{ total }} records,0
jsmessages,oro.datagrid.sorters.currency.ascending,Thấp đến Cao,Low to High,0
jsmessages,oro.datagrid.sorters.currency.descending,Cao đến thấp,High to Low,0
jsmessages,oro.datagrid.sorters.datetime.ascending,Cũ nhất trước,Oldest first,0
jsmessages,oro.datagrid.sorters.datetime.descending,Mới nhất trước,Newest first,0
jsmessages,oro.datagrid.sorters.decimal.ascending,Thấp đến Cao,Low to High,0
jsmessages,oro.datagrid.sorters.decimal.descending,Cao đến thấp,High to Low,0
jsmessages,oro.datagrid.sorters.not_selected,Mức độ liên quan,Relevance,0
jsmessages,oro.datagrid.sorters.number.ascending,Thấp đến Cao,Low to High,0
jsmessages,oro.datagrid.sorters.number.descending,Cao đến thấp,High to Low,0
jsmessages,oro.datagrid.sorters.string.ascending,Từ A đến Z,A to Z,0
jsmessages,oro.datagrid.sorters.string.descending,Từ Z đến A,Z to A,0
jsmessages,oro.datagrid.sorters.undefined.ascending,Thấp đến Cao,Low to High,0
jsmessages,oro.datagrid.sorters.undefined.descending,Cao đến thấp,High to Low,0
jsmessages,oro.datagrid.toolbar_sorting.label,Được sắp xếp bởi,Sorted By,0
jsmessages,oro.dotmailer.datafieldmapping.change_channel_confirmation,Thay đổi tích hợp sẽ xóa tất cả cấu hình ánh xạ. Bạn có muốn tiếp tục?,Changing the integration will erase all mapping configuration. Do you want to continue?,0
jsmessages,oro.dotmailer.datafieldmapping.change_entity_confirmation,Thay đổi thực thể sẽ xóa tất cả cấu hình ánh xạ. Bạn có muốn tiếp tục?,Changing the entity will erase all mapping configuration. Do you want to continue?,0
jsmessages,oro.dotmailer.datafieldmapping.editor,Trình chỉnh sửa ánh xạ,the Mapping Editor,0
jsmessages,oro.email.action.error,Đã xảy ra lỗi,Error has occurred,0
jsmessages,oro.email.action.success_mark_read,Email đã được đánh dấu là đã đọc,Email has been marked as read,0
jsmessages,oro.email.action.success_mark_unread,Email đã được đánh dấu là chưa đọc,Email has been marked as unread,0
jsmessages,oro.email.attachment.added,Đã thêm tệp đính kèm,Attachment added,0
jsmessages,oro.email.attachment.select_file,Chọn tập tin,Select file,0
jsmessages,oro.email.emailtemplate.apply_template_confirmation_content,Nội dung nội dung sẽ được thay thế bằng mẫu. Bạn có chắc muốn tiếp tục?,The body content will be replaced by a template. Are you sure you want to proceed?,0
jsmessages,oro.email.emailtemplate.apply_template_confirmation_title,Áp dụng xác nhận mẫu,Apply Template Confirmation,0
jsmessages,oro.email.emailtemplate.cannot_insert_variable,"Không thể chèn biến, vui lòng đặt con trỏ vào chủ đề hoặc nội dung của mẫu.","Cannot insert variable, please put the cursor into the subject or the content of the template.",0
jsmessages,oro.email.emailtemplate.change_entity_confirmation,Dữ liệu mẫu có thể chứa các biến liên quan đến thực thể được chọn trước đó. Bạn có muốn xóa tất cả dữ liệu mẫu không?,The template data can contain variables related to the previous selected entity. Do you want to clear all template data?,0
jsmessages,oro.email.emailtemplate.load_failed,Đã xảy ra lỗi trong khi tải mẫu.,Error occured while loading template.,0
jsmessages,oro.email.emailtemplate.reference_title,{{ variable_label }}. Nhấp để chuyển đến các biến có liên quan.,{{ variable_label }}. Click to go to related variables.,0
jsmessages,oro.email.emailtemplate.variable_title,{{ variable_label }}. Nhấn vào đây để chèn biến hoặc kéo nó.,{{ variable_label }}. Click to insert variable or drag it.,0
jsmessages,oro.email.error.get_email_last,Không nhận được email cuối cùng,Getting last emails failed,0
jsmessages,oro.email.error.mark_as_read,Đánh dấu tất cả là đã đọc không thành công,Marking all as read failed,0
jsmessages,oro.email.form.attach,Đính kèm,Attach,0
jsmessages,oro.email.form.no_attachments,Không có tệp đính kèm nào,No available attachments,0
jsmessages,oro.email.form.record_attachments,Ghi tệp đính kèm,Record Attachments,0
jsmessages,oro.email.form.thread_attachments,Tệp đính kèm,Thread Attachments,0
jsmessages,oro.email.handler.unable_to_send_email,Không thể gửi email.,Unable to send the email.,0
jsmessages,oro.email.menu.mark_unread.error.message,Lỗi đánh dấu email là chưa đọc,Error mark message as unread,0
jsmessages,oro.email.menu.mark_unread.success.message,Thư đã được đánh dấu là chưa đọc,Message has been marked as unread,0
jsmessages,oro.email.menu.shortcut_compose_email.label,Soạn email,Compose Email,0
jsmessages,oro.email.notification.empty,Bạn chưa có bất kỳ email nào,You don't have any emails yet,0
jsmessages,oro.email.notification.mark_read.label,Đánh dấu tất cả như đã đọc,Mark all as Read,0
jsmessages,oro.email.notification.menu_item.hint,Email gần đây,Recent Emails,0
jsmessages,oro.email.notification.more_unread,Đọc thêm,More Unread,0
jsmessages,oro.email.notification.new_email,Bạn có một email mới,You have a new email,0
jsmessages,oro.email.notification.user_emails.label,Thư điện tử của tôi,My emails,0
jsmessages,oro.email.recent_emails_widget.all_folders,TẤT CẢ,ALL,0
jsmessages,oro.email.recent_emails_widget.amount_of_emails,Số lượng email hiển thị,Amount of Emails to Display,0
jsmessages,oro.email.recent_emails_widget.default_action,Hành động mặc định,Default Action,0
jsmessages,oro.email.recent_emails_widget.default_action_hint,Hành động mặc định cho tiện ích trong trạng thái thanh bên mở rộng,Default action for widget in a state of extended sidebar,0
jsmessages,oro.email.recent_emails_widget.description,Tiện ích này cho phép bạn xem những bổ sung mới nhất cho hộp thư đến và hộp thư đi của bạn,This widget allows you to see most recent additions to your inbox and outbox,0
jsmessages,oro.email.recent_emails_widget.forward,Phía trước,Forward,0
jsmessages,oro.email.recent_emails_widget.mailbox_folder,Thư mục hộp thư,Mailbox Folder,0
jsmessages,oro.email.recent_emails_widget.mark_visible_read.label,Đánh dấu có thể nhìn thấy là đã đọc,Mark Visible as Read,0
jsmessages,oro.email.recent_emails_widget.no_subject,không chủ đề,no subject,0
jsmessages,oro.email.recent_emails_widget.reply,Đáp lại,Reply,0
jsmessages,oro.email.recent_emails_widget.reply_all,Trả lời tất cả,Reply All,0
jsmessages,oro.email.recent_emails_widget.settings,Những chỉnh sửa công cụ email gần đây,Recent Emails Widget Settings,0
jsmessages,oro.email.recent_emails_widget.title_all_folders,TẤT CẢ EMAIL GẦN ĐÂY,RECENT EMEILS,0
jsmessages,oro.email.send_email,Gửi email,Send email,0
jsmessages,oro.email.smtp_connection.error,Không thể thiết lập kết nối,Could not establish connection,0
jsmessages,oro.email.smtp_connection.success,Đã thiết lập kết nối thành công,Connection established successfully,0
jsmessages,oro.email.thread.collapse_all.label,Thu gọn tất cả,Collapse All,0
jsmessages,oro.email.thread.collapse_all.tooltip,Thu gọn tất cả email trong chuỗi,Collapse all emails in the thread,0
jsmessages,oro.email.thread.expand_all.label,Mở rộng tất cả,Expand All,0
jsmessages,oro.email.thread.expand_all.tooltip,Mở rộng tất cả email trong chuỗi,Expand all emails in the thread,0
jsmessages,oro.email.thread.load_error,"Rất tiếc, chuỗi email không được tải chính xác.","Sorry, email thread was not loaded correctly.",0
jsmessages,oro.email.thread.no_signature,"Bạn chưa có chữ ký. Vui lòng thêm nó vào <a href=""{{ url }}""> Cấu hình của tôi </a>.","You don't have a signature yet. Please add it in <a href=""{{ url }}"">My Configuration</a>.",0
jsmessages,oro.email.thread.no_signature_no_permission,Bạn chưa có chữ ký. Liên hệ với quản trị viên của bạn để thêm nó.,You don't have a signature yet. Contact your administrator to add it.,0
jsmessages,oro.email.to,Đến,To,0
jsmessages,oro.entity.field_choice.fields,Lựa chọn,Fields,0
jsmessages,oro.entity.field_choice.none,Không,none,0
jsmessages,oro.entity.field_choice.relations,Các lựa chọn đi cùng nhau,Related entities,0
jsmessages,oro.entity.form.choose_entity_field,Chọn một trường ...,Choose a field...,0
jsmessages,oro.entity.not_exist,Thực thể được sử dụng hoặc trường của nó không tồn tại,Utilized entity or its field does not exist,0
jsmessages,oro.entity.structure_outdated.message,"Thông tin cấu trúc đối tượng đã lỗi thời, vui lòng <a href='#' data-action='page-refresh'> làm mới trang </a>","Entities structure information is outdated, please <a href='#' data-action='page-refresh'>refresh the page</a>",0
jsmessages,oro.entity_config.attributes_grid.delete_attribute.confirm_content,Bạn có chắc chắn muốn xóa thuộc tính này không?,Are you sure you want to delete this attribute?,0
jsmessages,oro.entity_extend.delete_field.confirm_content,Bạn có chắc chắn muốn xóa trường này không?,Are you sure you want to delete this field?,0
jsmessages,oro.entity_extend.enum_value_collection.clear_default,Không đặt mặc định,Do not set Default,0
jsmessages,oro.entity_extend.schema_update_failed,Cập nhật giản đồ không thành công,Schema update failed,0
jsmessages,oro.entity_extend.schema_updated,Đã cập nhật giản đồ,Schema updated,0
jsmessages,oro.entity_merge.mass_action.validation.maximum_records_error,Đã chọn quá nhiều bản ghi. Hợp nhất hỗ trợ tối đa {{number}} bản ghi.,Too many records selected. Merge supports maximum {{ number }} records.,0
jsmessages,oro.entity_merge.mass_action.validation.minimum_records_error,Chọn từ 2 đến {{number}} bản ghi.,Select from 2 to {{ number }} records.,0
jsmessages,oro.entityextend.delete_field.confirm_content,"Bạn có chắc chắn muốn xóa trường này không? Đối với trường loại lưu trữ được nối tiếp, hành động này không thể hoàn tác được.","Are you sure you want to delete this field? For Serialized storage type field, this action cannot be undone.",0
jsmessages,oro.filter.choice-tree.all,Tất cả,All,0
jsmessages,oro.filter.choice-tree.selected,Đã chọn,Selected,0
jsmessages,oro.filter.datagrid-toolbar.filters,Bộ lọc,Filters,0
jsmessages,oro.filter.datagrid-toolbar.filters_count,Bộ lọc ({{ count }}),Filters ({{ count }}),0
jsmessages,oro.filter.datagrid-toolbar.save_filters,Lưu bộ lọc,Save Filters,0
jsmessages,oro.filter.date.days.title,Ngày,Days,0
jsmessages,oro.filter.date.info,"Ngoài các ngày chính xác, bộ lọc hỗ trợ nhập ngày và tháng. Xóa năm kể từ ngày để lọc các bản ghi rơi vào ngày này của bất kỳ năm nào (ví dụ: khách hàng có sinh nhật vào ngày 15 tháng 11); xóa năm và ngày để lọc các bản ghi theo toàn bộ tháng (ví dụ: tất cả các đơn hàng được đặt trong khoảng từ tháng 1 đến tháng 3). Cả tên tháng dài và ngắn đều được hỗ trợ.","In addition to exact dates, the filter supports entry of days and months. Delete the year from the date in order to filter records that fall into this date of any year (e.g. customers that have birthdays on November 15th); delete the year and the day to filter records by entire months (e.g. all orders placed between January and March). Both long and short month names are supported.",0
jsmessages,oro.filter.date.months.title,Tháng,Months,0
jsmessages,oro.filter.date.part.day.tooltip,Số ngày trong tháng (1 - 31),Number of the day in month (1 - 31),0
jsmessages,oro.filter.date.part.dayofyear.tooltip,Số ngày trong năm (1 - 366),Number of the day in year (1 - 366),0
jsmessages,oro.filter.date.part.quarter.tooltip,Số quý trong năm (1 - 4),Number of the quarter of year (1 - 4),0
jsmessages,oro.filter.date.part.week.tooltip,Số tuần (1 - 53),Number of the week (1 - 53),0
jsmessages,oro.filter.date.part.year.tooltip,"Năm Gregorian, bắt đầu từ 1 sau CN","Gregorian year, starting from 1 AD",0
jsmessages,oro.filter.date.placeholder.day,Nhập ngày,Type a day,0
jsmessages,oro.filter.date.placeholder.dayofweek,Chọn một ngày,Choose a day,0
jsmessages,oro.filter.date.placeholder.dayofyear,Nhập ngày trong năm,Type a day of year,0
jsmessages,oro.filter.date.placeholder.month,Nhập một tháng,Type a month,0
jsmessages,oro.filter.date.placeholder.quarter,Nhập một phần tư,Type a quarter,0
jsmessages,oro.filter.date.placeholder.value,Chọn một ngày,Choose a date,0
jsmessages,oro.filter.date.placeholder.week,Nhập một tuần,Type a week,0
jsmessages,oro.filter.date.placeholder.year,Nhập một năm,Type a year,0
jsmessages,oro.filter.date.tab.calendar,Lịch,Calendar,0
jsmessages,oro.filter.date.tab.days,Ngày,Days,0
jsmessages,oro.filter.date.tab.months,Tháng,Months,0
jsmessages,oro.filter.date.tab.variables,Biến,Variables,0
jsmessages,oro.filter.date.variable.title,Biến có sẵn,Available variables,0
jsmessages,oro.filter.date.variable.tooltip,"Bạn cũng có thể sử dụng chúng để tạo biểu thức. <br/> Ví dụ: <br/> ""hôm nay - 2"" sẽ được đánh giá là ngày hôm trước.","You can also use them to create expressions.<br/> For example:<br/> ""today - 2"" will be evaluated as the day before yesterday.",0
jsmessages,oro.filter.date.variable.tooltip_title,Biểu thức ngày tháng,Date expressions,0
jsmessages,oro.filter.embedded.choice.field_to_value,giá trị trường,field value,0
jsmessages,oro.filter.embedded.date.field_to_value,cánh đồng,field,0
jsmessages,oro.filter.embedded.select.field_to_value,giá trị trường là,field value is,0
jsmessages,oro.filter.reset.label,Xóa tất cả bộ lọc,Clear All Filters,0
jsmessages,oro.filter.warning.max_length,Vui lòng nhập tối đa {{ max_length }} ký tự,Please enter at most {{ max_length }} characters,0
jsmessages,oro.filter.warning.min_length,Vui lòng nhập ít nhất {{ min_length }} ký tự,Please enter at least {{ min_length }} characters,0
jsmessages,oro.filter.wrapper.reset.hint,Cài lại,Reset,0
jsmessages,oro.filter.wrapper.reset.tooltip,Đặt lại bộ lọc này,Reset this filter,0
jsmessages,oro.form.add_new,Thêm mới,Add new,0
jsmessages,oro.form.choose_date,Chọn một ngày,Choose a date,0
jsmessages,oro.form.choose_time,thời gian,time,0
jsmessages,oro.form.inlineEditing.action.cancel,Hủy bỏ,Cancel,0
jsmessages,oro.form.inlineEditing.action.save,Lưu thay đổi,Save changes,0
jsmessages,oro.form.inlineEditing.helpMessage,Nhấp đúp vào ô để chỉnh sửa,Double click on cell to edit,0
jsmessages,oro.form.inlineEditing.inline_edits,Chỉnh sửa nội tuyến,Inline edits,0
jsmessages,oro.form.inlineEditing.loadingError,Không thể tải thành phần hoặc chế độ xem cho trình chỉnh sửa lưới nội dòng,Cannot load component or view for inline grid editor,0
jsmessages,oro.form.inlineEditing.multi_checkbox_editor.filter.placeholder,Lọc giá trị ...,Filter values...,0
jsmessages,oro.form.inlineEditing.saving_progress,Chỉnh sửa nội dòng đang được lưu,Inline edits are being saved,0
jsmessages,oro.form.inlineEditing.successMessage,Bản ghi đã được cập nhật thành công,Record has been successfully updated,0
jsmessages,oro.form.new,Mới,New,0
jsmessages,oro.hangoutscall.log_call_form.field_subject.label,Chủ đề,Subject,0
jsmessages,oro.hangoutscall.log_call_form.field_subject.notes,Biình luận thêm,Additional comments,0
jsmessages,oro.hangoutscall.log_call_form.title,Thông tin cuộc gọi CRM,CRM Call Information,0
jsmessages,oro.hangoutscall.messages.connection_error,Không thể bắt đầu phiên Google Hangout. Lỗi kết nối API Google.,Cannot start a Google Hangout session. Google API connection error.,0
jsmessages,oro.hangoutscall.start_hangouts_dialog.content_intro,"{0} Nhấp vào nút 'Bắt đầu Hangout' để mở Google Hangout ngay bây giờ |{1}Nhấp vào nút 'Bắt đầu Hangout' để mời người dùng này tham gia Google Hangout ngay bây giờ |[2,Inf[Nhấp vào 'Bắt đầu Hangout' để mời những người dùng này tham gia Google Hangout ngay bây giờ","{0}Click the 'Start a Hangout' button to open a Google Hangout now|{1}Click the 'Start a Hangout' button to invite this user to a Google Hangout now|[2,Inf[Click the 'Start a Hangout' button to invite these users to a Google Hangout now",0
jsmessages,oro.hangoutscall.start_hangouts_dialog.content_note,Bạn có thể mời tối đa 5 người dùng tham gia Google Hangout bằng cách gửi email cho họ hoặc gọi số điện thoại của một người dùng và khởi chạy Google Hangout ngay lập tức. Bạn sẽ có cơ hội thay đổi danh sách mời trước khi Hangout bắt đầu.,"You can invite up to 5 users to a Google Hangout by emailing them, or call a single user's phone number and launch a Google Hangout immediately. You will have a chance to alter the invite list before the Hangout begins.",0
jsmessages,oro.hangoutscall.start_hangouts_dialog.title,Mời các liên hệ vào Google Hangout,Invite Contacts to a Google Hangout,0
jsmessages,oro.imap.connection.error,Các tham số không hợp lệ!,Parameters are not valid!,0
jsmessages,oro.imap.connection.google.oauth.error.access_deny,Từ chối truy cập,Access deny,0
jsmessages,oro.imap.connection.google.oauth.error.blocked_popup,Đã xảy ra sự cố. Hãy đảm bảo rằng cửa sổ bật lên được bật.,Something has gone wrong. Please make sure that pop-ups are enabled.,0
jsmessages,oro.imap.connection.google.oauth.error.closed_auth,Đã xảy ra sự cố. Vui lòng giải quyết quản trị viên của bạn để kiểm tra cài đặt khóa google API.,Something has gone wrong. Please address your administrator to check the google API key settings.,0
jsmessages,oro.imap.connection.google.oauth.error.emptyClientId,Giá trị thông số id ứng dụng trống trong Cài đặt tích hợp của Google. Vui lòng định cấu hình cài đặt Google trong cấu hình hệ thống ứng dụng để tiếp tục với Google OAuth.,"Client id parameter value is empty in the Google Integration Settings. Please, configure Google settings in the application system configuration to proceed with Google OAuth.",0
jsmessages,oro.imap.connection.google.oauth.error.request,Đã xảy ra sự cố.,Something has gone wrong.,0
jsmessages,oro.imap.connection.imap.error,Không thể thiết lập kết nối IMAP,Could not establish the IMAP connection,0
jsmessages,oro.imap.connection.imap.success,Kết nối IMAP được thiết lập thành công,IMAP connection is established successfully,0
jsmessages,oro.imap.connection.smtp.error,Không thể thiết lập kết nối SMTP,Could not establish the SMTP connection,0
jsmessages,oro.imap.connection.smtp.success,Kết nối SMTP được thiết lập thành công,SMTP connection is established successfully,0
jsmessages,oro.imap.connection.success,Kết nối được thiết lập thành công!,Connection is established successfully!,0
jsmessages,oro.imap.sync.flash_message.system_box_failed,"Đồng bộ hóa với hộp thư hệ thống (tên người dùng ""{{ username }}"" được lưu trữ trên ""{{ host }}"") đã không thành công. Vui lòng kiểm tra thông tin đăng nhập kết nối trên trang cấu hình email.","Synchronization with the system mailbox (username ""{{ username }}"" hosted on ""{{ host }}"") has failed. Please check the connection credentials on the email configuraton page.",0
jsmessages,oro.imap.sync.flash_message.user_box_failed,"Đồng bộ hóa với hộp thư của bạn (tên người dùng ""{{ username }}"" được lưu trữ trên ""{{ host }}"") đã không thành công. Vui lòng kiểm tra thông tin đăng nhập kết nối trên trang cấu hình email.","Synchronization with your mailbox (username ""{{ username }}"" hosted on ""{{ host }}"") has failed. Please check the connection credentials on the email configuraton page.",0
jsmessages,oro.importexport.export.error_template_download.message,Đã xảy ra lỗi trong khi tải mẫu xuống.,Errors occured while downloading the template.,0
jsmessages,oro.importexport.export.fail.message,"Không thể bắt đầu xuất, vui lòng thử lại.","Could not start export, please try again.",0
jsmessages,oro.importexport.export.success.message,Đã bắt đầu xuất thành công. Bạn sẽ nhận được thông báo qua email sau khi hoàn thành.,Export started successfully. You will receive email notification upon completion.,0
jsmessages,oro.importexport.import.fail.message,"Không thể bắt đầu nhập, vui lòng thử lại.","Could not start import, please try again.",0
jsmessages,oro.importexport.import.form_fail.message,"Lỗi: Tệp bị lỗi hoặc bị thiếu, Vui lòng chọn tệp hợp lệ để nhập.","Error: Bad or missing file,  Please choose a valid file to import.",0
jsmessages,oro.importexport.import.starting.message,Đang bắt đầu nhập ...,Starting import...,0
jsmessages,oro.importexport.import.success.message,Đã bắt đầu nhập thành công. Bạn sẽ nhận được thông báo qua email sau khi hoàn thành.,Import started successfully. You will receive email notification upon completion.,0
jsmessages,oro.importexport.import_validation.fail.message,"Không thể bắt đầu xác thực nhập, vui lòng thử lại.","Could not start import validation, please try again.",0
jsmessages,oro.importexport.import_validation.form_fail.message,"Lỗi: Tệp bị lỗi hoặc bị thiếu, Vui lòng chọn tệp hợp lệ để xác thực nhập.","Error: Bad or missing file,  Please choose a valid file for import validation.",0
jsmessages,oro.importexport.import_validation.starting.message,Đang bắt đầu xác thực nhập ...,Starting import validation...,0
jsmessages,oro.importexport.import_validation.success.message,Quá trình xác thực nhập đã bắt đầu thành công. Bạn sẽ nhận được thông báo qua email sau khi hoàn thành.,Import validation started successfully. You will receive email notification upon completion.,0
jsmessages,oro.integration.activate.fail.message,Không thể kích hoạt tích hợp.,Failed to activate integration.,0
jsmessages,oro.integration.change_type,Đổi loại,Change Type,0
jsmessages,oro.integration.channel.sync_priority.tooltip,Chọn nếu phiên bản dữ liệu cục bộ của bạn hoặc dữ liệu ứng dụng từ xa được ưu tiên trong trường hợp cả hai được cập nhật kể từ lần đồng bộ hóa cuối cùng.,Select if your local version of the data or    the remote application data get priority in the case that both were updated since the last sync process.,0
jsmessages,oro.integration.deactivate.fail.message,Không thể hủy kích hoạt tích hợp.,Failed to deactivate integration.,0
jsmessages,oro.integration.delete_sync_integration_window.button_ok,"Có, Xóa","Yes, Delete",0
jsmessages,oro.integration.delete_sync_integration_window.content,Cảnh báo: Việc xóa tích hợp sẽ xóa tất cả dữ liệu có liên quan,Warning: Removing the integration will delete all related data,0
jsmessages,oro.integration.delete_sync_integration_window.success,Tích hợp và tất cả dữ liệu liên quan đã bị xóa,Integration and all related data were deleted,0
jsmessages,oro.integration.delete_sync_integration_window.title,Xác nhận Xóa,Delete Confirmation,0
jsmessages,oro.integration.error,"Đã xảy ra lỗi, vui lòng thử lại sau.","Error was occurred, please try later.",0
jsmessages,oro.integration.force_sync.cancel,Hủy bỏ,Cancel,0
jsmessages,oro.integration.force_sync.message,Lưu ý: Hành động này sẽ bắt đầu đồng bộ hóa lại tất cả dữ liệu {{ integration_name }}. Nó có thể đòi hỏi một thời gian để hoàn thành.,Attention: This action will start full re-synchronization of all {{ integration_name }} data. It might require some time to complete.,0
jsmessages,oro.integration.force_sync.ok,Chạy đồng bộ hóa lại,Run Re-sync,0
jsmessages,oro.integration.force_sync.title,Xác nhận lại đồng bộ hóa lại toàn bộ,Confirm full integration re-sync,0
jsmessages,oro.integration.submit,Bạn có chắc chắn muốn thay đổi loại không?,Are you sure you want to change type?,0
jsmessages,oro.locale.localization.delete_confirm,Tất cả dữ liệu được bản địa hóa có liên quan sẽ bị xóa. Bạn có chắc chắn muốn xóa {{ entityLabel }} này không?,All related localized data will be deleted. Are you sure you want to delete this {{ entityLabel }}?,0
jsmessages,oro.magento.autocomplete.entity_number,{{ entityName }} {{ entityNumber }},{{ entityName }} {{ entityNumber }},0
jsmessages,oro.magento.customer_registration.error,Khách hàng chưa đăng ký,Customer was not registered,0
jsmessages,oro.magento.customer_registration.success,Khách hàng đã đăng ký,Customer registered,0
jsmessages,oro.magento.error,Kiểm tra kết nối không thành công. Vui lòng thử lại sau.,"Check connection failed. Please, try again later.",0
jsmessages,oro.magento.external_error,Đã xảy ra lỗi bên ngoài,External error occured,0
jsmessages,oro.magento.newslettersubscriber.action.confirm_cancel,Hủy bỏ,Cancel,0
jsmessages,oro.magento.newslettersubscriber.action.confirm_ok,Vâng,Yes,0
jsmessages,oro.magento.newslettersubscriber.action.confirm_title.subscribe,Xác nhận đăng ký,Subscribe Confirmation,0
jsmessages,oro.magento.newslettersubscriber.action.confirm_title.unsubscribe,Hủy đăng ký xác nhận,Unsubscribe Confirmation,0
jsmessages,oro.magento.newslettersubscriber.action.content.subscribe,Bạn có chắc chắn muốn đăng ký mục này không?,Are you sure you want to subscribe this item?,0
jsmessages,oro.magento.newslettersubscriber.action.content.unsubscribe,Bạn có chắc chắn muốn hủy đăng ký mục này không?,Are you sure you want to unsubscribe this item?,0
jsmessages,oro.magento.newslettersubscriber.action.error.subscribe,Chưa đăng ký,Not subscribed,0
jsmessages,oro.magento.newslettersubscriber.action.error.unsubscribe,Chưa hủy đăng ký,Not unsubscribed,0
jsmessages,oro.magento.newslettersubscriber.action.success.subscribe,Đã đăng ký,Subscribed,0
jsmessages,oro.magento.newslettersubscriber.action.success.unsubscribe,Đã hủy đăng ký,Unsubscribed,0
jsmessages,oro.magento.outdated_warning,Phiên bản mở rộng OroBridge của bạn {{ extension_version }} đã lỗi thời và chức năng của nó bị giới hạn. Vui lòng cập nhật tiện ích mở rộng lên phiên bản {{ required_version }} mới nhất và kiểm tra lại kết nối.,Your OroBridge extension version {{ extension_version }} is outdated and its functionality limited. Please update the extension to the latest version {{ required_version }} and check the connection again.,0
jsmessages,oro.magento.performing_synchronization,Đang thực hiện đồng bộ hóa ...,Performing synchronization...,0
jsmessages,oro.magento.subscription.error,Đăng ký không được cập nhật,Subscription was not updated,0
jsmessages,oro.magento.subscription.success,Đã cập nhật đăng ký,Subscription updated,0
jsmessages,oro.magento.success,"Kết nối thành công, vui lòng chọn một trang web từ danh sách bên dưới","Connection successful, please select a website from the list below",0
jsmessages,oro.magento.success_bridge,Kết nối thành công. Bạn đang chạy phiên bản OroBridge {{ extension_version }}. Vui lòng chọn một trang web từ danh sách bên dưới,Connection was successful. You are running OroBridge version {{ extension_version }}. Please select a website from the list below,0
jsmessages,oro.magento.view_order,Xem đơn đặt hàng,View order,0
jsmessages,oro.mailchimp.integration_transport.api_key.check.message,Kiểm tra Khóa Api,Check Api Key,0
jsmessages,oro.mailchimp.request.error,"Rất tiếc, đã xảy ra lỗi khi thực hiện yêu cầu","Sorry, something went wrong while executing request",0
jsmessages,oro.marketing.list.change_entity_confirmation,Dữ liệu mẫu có thể chứa các biến liên quan đến thực thể được chọn trước đó. Bạn có muốn xóa tất cả dữ liệu mẫu không?,The template data can contain variables related to the previous selected entity. Do you want to clear all template data?,0
jsmessages,oro.marketingactivity.widget.filter.campaign.title,Chiến dịch,Campaign,0
jsmessages,oro.marketinglist.refresh_dialog.content,Vui lòng xác nhận rằng bạn muốn làm mới danh sách này,Please confirm that you want to refresh this list,0
jsmessages,oro.marketinglist.refresh_dialog.success,Danh sách tiếp thị được làm mới thành công,Marketing list successfully refreshed,0
jsmessages,oro.marketinglist.remove_dialog.confirm_cancel,Hủy bỏ,Cancel,0
jsmessages,oro.marketinglist.remove_dialog.confirm_ok,Vâng,Yes,0
jsmessages,oro.marketinglist.remove_dialog.confirm_title,Xóa xác nhận,Remove Confirmation,0
jsmessages,oro.marketinglist.remove_dialog.content,Bạn có chắc chắn muốn xóa mục này không?,Are you sure you want to remove this item?,0
jsmessages,oro.marketinglist.remove_dialog.success,Đã xóa.,Removed.,0
jsmessages,oro.marketinglist.unremove_dialog.confirm_cancel,Hủy bỏ,Cancel,0
jsmessages,oro.marketinglist.unremove_dialog.confirm_ok,Vâng,Yes,0
jsmessages,oro.marketinglist.unremove_dialog.confirm_title,Hoàn tác xóa xác nhận,Undo Remove Confirmation,0
jsmessages,oro.marketinglist.unremove_dialog.content,Bạn có chắc chắn muốn hoàn tác xóa cho mục này không?,Are you sure you want to undo remove for this item?,0
jsmessages,oro.marketinglist.unremove_dialog.success,Đã xóa.,Removed.,0
jsmessages,oro.navigation.menuupdate.moved_success_message,Menu đã được cập nhật. Vui lòng {{ reload_link }} trang để xem các thay đổi được áp dụng.,The menu has been updated. Please {{ reload_link }} the page to see the changes applied.,0
jsmessages,oro.navigation.menuupdate.reload_link.label,tải lại,reload,0
jsmessages,oro.note.add_note_title,Thêm ghi chú,Add note,0
jsmessages,oro.note.delete_note_error,"Rất tiếc, xóa ghi chú không thành công.","Sorry, the note deleting was failed.",0
jsmessages,oro.note.edit_note_title,Cập nhật ghi chú,Update note,0
jsmessages,oro.note.forbidden_error,Bạn không có quyền thực hiện hành động này.,You do not have permission to perform this action.,0
jsmessages,oro.note.load_notes_error,"Rất tiếc, ghi chú không được tải chính xác.","Sorry, notes were not loaded correctly.",0
jsmessages,oro.note.note_delete_confirmation,Bạn có chắc chắn muốn xóa ghi chú này không?,Are you sure you want to delete this note?,0
jsmessages,oro.note.note_removed,Đã xóa ghi chú,Note deleted,0
jsmessages,oro.note.note_saved,Đã lưu ghi chú,Note saved,0
jsmessages,oro.platform.maintenance_mode_on_message,"Trang web hiện đang ngừng hoạt động để bảo trì và không thể trả lời yêu cầu của bạn. Sẽ sớm trở lại trực tuyến, vui lòng thử truy cập lại sau vài phút. Xin lỗi vì sự bất tiện. Nếu bạn cần thêm thông tin, vui lòng liên hệ với Quản trị viên của bạn.","The website is currently down for maintenance and cannot respond to your request. It should be back online shortly, please try to re-access in a few minutes.
Sorry for the inconvenience. If you need more information please contact your Administrator.
",0
jsmessages,oro.platform.maintenance_mode_on_title,Chế độ bảo trì,Maintenance mode,0
jsmessages,oro.querydesigner.field_condition.filter_not_supported,Bộ lọc này không được hỗ trợ.,This filter is not supported.,0
jsmessages,oro.querydesigner.field_condition.lifetimevalue_filter_not_supported,Tính năng lọc theo LifetimeValue chưa được hỗ trợ.,The filtering by the LifetimeValue is not supported yet.,0
jsmessages,oro.querydesigner.field_not_found,Trường không còn tồn tại,The field no longer exists,0
jsmessages,oro.report.change_entity_confirmation,Thay đổi thực thể sẽ xóa tất cả các bộ lọc và cột báo cáo. Bạn có muốn tiếp tục?,Changing the entity will erase all report filters and columns. Do you want to continue?,0
jsmessages,oro.report.view_sql.hide_sql_query,Ẩn truy vấn SQL,Hide SQL Query,0
jsmessages,oro.report.view_sql.messages.copied,Đã sao chép vào Clipoboard.,Copied to Clipoboard.,0
jsmessages,oro.report.view_sql.messages.copy_not_successful,Lệnh sao chép không thành công.,Copy command was not successful.,0
jsmessages,oro.report.view_sql.messages.copy_not_supported,Trình duyệt của bạn không hỗ trợ lệnh sao chép. Vui lòng nhấn Ctrl / Cmd + C để sao chép.,Your browser does not support copy command. Please press Ctrl/Cmd+C to copy.,0
jsmessages,oro.report.view_sql.show_sql_query,Hiển thị truy vấn SQL,Show SQL Query,0
jsmessages,oro.role.capability_block.label,Khả năng,Capabilities,0
jsmessages,oro.role.capability_block.no_capabilities_available,Nhóm này không có khả năng,This group has no capabilities,0
jsmessages,oro.role.capability_block.select_all,Chọn tất cả,Select All,0
jsmessages,oro.role.content_outdated,"Vai trò hiện tại đã được cập nhật. Vui lòng <a href=""#"" onclick=""window.location.reload(false);return false;""> làm mới trang </a> để xem các thay đổi mới","The current role has been updated. Please, <a href=""#"" onclick=""window.location.reload(false);return false;"">refresh the page</a> to view new changes",0
jsmessages,oro.role.tabs.all.label,Tất cả,All,0
jsmessages,oro.role.tabs.system_capabilities.label,Khả năng của hệ thống,System Capabilities,0
jsmessages,oro.sales.email.error.delete.more_one,"Địa chỉ email không bị xóa, khách hàng tiềm năng có nhiều địa chỉ email, không thể đặt địa chỉ email chính mới.","Email address was not deleted, the lead has more than one email addresses, can't set the new primary.",0
jsmessages,oro.sales.form.add_new_customer,Thêm mới {{ account }},Add new {{ account }},0
jsmessages,oro.sales.form.new_customer,Mới,New,0
jsmessages,oro.sales.phone.error.delete.more_one,"Số điện thoại không bị xóa, khách hàng tiềm năng có nhiều số điện thoại, không thể đặt số điện thoại chính mới.","Phone number was not deleted, the lead has more than one phone number, can't set the new primary.",0
jsmessages,oro.search.quick_search.noresults,không có kết quả nào được tìm thấy,no results found,0
jsmessages,oro.segment.change_entity_confirmation,Thay đổi thực thể sẽ xóa tất cả các bộ lọc và cột phân đoạn. Bạn có muốn tiếp tục?,Changing the entity will erase all segment filters and columns. Do you want to continue?,0
jsmessages,oro.segment.confirm.data_issue.invalid_data,dữ liệu không hợp lệ trong {{ components }},invalid data in {{ components }},0
jsmessages,oro.segment.confirm.data_issue.unsaved_changes,các thay đổi chưa được lưu trong {{ components }},unsaved changes in {{ components }},0
jsmessages,oro.segment.confirm.dialog.message,Bạn có {{ data_issue }} sẽ bị mất. Vẫn tiếp tục?,You have {{ data_issue }} that will be lost. Proceed anyway?,0
jsmessages,oro.segment.confirm.dialog.title,Dữ liệu sẽ bị mất,Data will be lost,0
jsmessages,oro.segment.grouping_editor,Trình chỉnh sửa nhóm,the Grouping Editor,0
jsmessages,oro.segment.refresh_dialog.content,Vui lòng xác nhận rằng bạn muốn làm mới phân đoạn này.,Please confirm that you want to refresh this segment.,0
jsmessages,oro.segment.refresh_dialog.error,Đã xảy ra lỗi không xác định. Vui lòng liên hệ với Quản trị viên của bạn.,An unidentified error has occurred. Please contact your Administrator.,0
jsmessages,oro.segment.refresh_dialog.okText,Vâng,Yes,0
jsmessages,oro.segment.refresh_dialog.success,Đã xử lý thành công phân đoạn.,Segment successfully processed.,0
jsmessages,oro.segment.refresh_dialog.title,Xác nhận hành động,Confirm action,0
jsmessages,oro.segment.report_column_editor,Trình chỉnh sửa cột báo cáo,the Report Column Editor,0
jsmessages,oro.sidebar.sticky_note_widget.content,Nội dung ghi chú,Note content,0
jsmessages,oro.sidebar.sticky_note_widget.description,Công cụ này cho phép bạn tạo ghi chú nhanh chóng,This widget allows you to create notes quickly,0
jsmessages,oro.sidebar.sticky_note_widget.settings,Cài đặt ghi chú dính,Sticky Note settings,0
jsmessages,oro.sidebar.widget.action.close,Gần,Close,0
jsmessages,oro.sidebar.widget.action.configure,Chỉnh,Configure,0
jsmessages,oro.sidebar.widget.action.refresh,Làm tươi,Refresh,0
jsmessages,oro.sidebar.widget.action.remove,Loại bỏ,Remove,0
jsmessages,oro.sidebar.widget.add.content.section_title,Thêm tiện ích,Add widget,0
jsmessages,oro.sidebar.widget.add.dialog.title,Tiện ích thanh bên,Sidebar Widgets,0
jsmessages,oro.sidebar.widget.remove.confirm.message,Tiện ích sẽ bị xóa,The widget will be removed,0
jsmessages,oro.sidebar.widget.setup.dialog.title,Thiết lập tiện ích,Widget setup,0
jsmessages,oro.tag.inline_editing.existing_tag,Thẻ này đã được thêm,This tag is already added,0
jsmessages,oro.tag.inline_editing.loading,Đang tải...,Loading...,0
jsmessages,oro.tag.inline_editing.new_tag,Thẻ mới,New tag,0
jsmessages,oro.tag.inline_editing.no_matches,Lọc kết quả tìm thấy,No matches found,0
jsmessages,oro.tag.taxonomy.background_color.label,Màu sắc,Color,0
jsmessages,oro.tag.taxonomy.created_by.label,Được tạo bởi,Created By,0
jsmessages,oro.tag.taxonomy.entity_label,Phân loại,Taxonomy,0
jsmessages,oro.tag.taxonomy.entity_plural_label,Phân loại,Taxonomies,0
jsmessages,oro.tag.taxonomy.id.label,ID,Id,0
jsmessages,oro.tag.taxonomy.label,Phân loại,Taxonomy,0
jsmessages,oro.tag.taxonomy.name.label,Tên,Name,0
jsmessages,oro.tag.taxonomy.no_color,Không có màu nào hợp,No color available,0
jsmessages,oro.tag.taxonomy.organization.label,Cơ quan,Organization,0
jsmessages,oro.tag.taxonomy.owner.label,Chủ nhân,Owner,0
jsmessages,oro.tag.taxonomy.tagging.label,Gắn thẻ,Tagging,0
jsmessages,oro.tag.taxonomy.tags.label,Thẻ,Tags,0
jsmessages,oro.tag.taxonomy.updated_by.label,Cập nhật bởi,Updated By,0
jsmessages,oro.task.assigned_tasks_widget.description,Tiện ích này cho phép bạn xem các tác vụ được giao cho bạn,This widget allows you to see tasks assigned to you,0
jsmessages,oro.task.assigned_tasks_widget.number_of_tasks,Số lượng tác vụ cần hiển thị,Number of tasks to show,0
jsmessages,oro.task.assigned_tasks_widget.settings,Tùy chỉnh công cụ quản lý công việc,Task Widget Settings,0
jsmessages,oro.taxonomy.inline_editing.existing_tag,Phân loại này đã được thêm,This taxonomy is already added,0
jsmessages,oro.taxonomy.inline_editing.loading,Đang tải...,Loading...,0
jsmessages,oro.taxonomy.inline_editing.new_taxonomy,Phân loại mới,New taxonomy,0
jsmessages,oro.taxonomy.inline_editing.no_matches,Lọc kết quả tìm thấy,No matches found,0
jsmessages,oro.translation.action.reset.confirm_content,Bạn có chắc chắn muốn đặt lại các bản dịch đã chọn thành giá trị ban đầu của chúng không?,Are you sure you want to reset selected translations to their original values?,0
jsmessages,oro.translation.action.reset.confirm_ok,Cài lại từ đầu,Reset,0
jsmessages,oro.translation.action.reset.confirm_title,Xác nhận cài lại từ đầu,Reset Confirmation,0
jsmessages,oro.translation.action.reset.message,Đặt lại giá trị đã dịch?,Reset translated value?,0
jsmessages,oro.ui.components.initialization_error,Đã xảy ra lỗi trong khi cập nhật bố cục. Vui lòng liên hệ với quản trị viên hệ thống.,Error occurred during layout update. Please contact system administrator.,0
jsmessages,oro.ui.datepicker.close,Gần,Close,0
jsmessages,oro.ui.datepicker.next,Kế tiếp,Next,0
jsmessages,oro.ui.datepicker.prev,Trước đó,Prev,0
jsmessages,oro.ui.datepicker.today,Hôm nay,Today,0
jsmessages,oro.ui.datepicker.wk,Tuần,Wk,0
jsmessages,oro.ui.delete_confirm_cascade,Bạn có chắc chắn muốn xóa {{ entity_label }} này với các thực thể khác có liên quan đến nó không?,Are you sure you want to delete this {{ entity_label }} with other entities related to it?,0
jsmessages,oro.ui.element_value.messages.copied,Sao chép vào clipboard,Copied to clipboard,0
jsmessages,oro.ui.element_value.messages.copy_not_successful,Lệnh sao chép không thành công,Copy command was not successful,0
jsmessages,oro.ui.element_value.messages.copy_not_supported,Trình duyệt của bạn không hỗ trợ lệnh sao chép. Vui lòng nhấn Ctrl / Cmd + C để sao chép,Your browser does not support copy command. Please press Ctrl/Cmd+C to copy,0
jsmessages,oro.ui.error.performing,Đã xảy ra lỗi khi thực hiện thao tác được yêu cầu. Vui lòng thử lại hoặc liên hệ với chúng tôi để được giúp đỡ.,There was an error performing the requested operation. Please try again or contact us for assistance.,0
jsmessages,oro.ui.error.unexpected,Định dạng nội dung không mong muốn,Unexpected content format,0
jsmessages,oro.ui.forbidden_error,Bạn không có quyền thực hiện hành động này.,You do not have permission to perform this action.,0
jsmessages,oro.ui.highlight_switcher.show_all_items,Hiển thị các mục bị ẩn,Show hidden items,0
jsmessages,oro.ui.highlight_switcher.show_highlighted_items_only,Chỉ hiển thị kết quả tìm kiếm,Show search results only,0
jsmessages,oro.ui.item_add_error,Không thể thêm mục.,Item adding failed.,0
jsmessages,oro.ui.item_delete_error,Không thể xóa mục.,Item deleting failed.,0
jsmessages,oro.ui.jstree.actions.collapse,Thu gọn tất cả,Collapse all,0
jsmessages,oro.ui.jstree.actions.expand,Mở rộng tất cả,Expand all,0
jsmessages,oro.ui.jstree.actions.move,Chuyển tới,Move To,0
jsmessages,oro.ui.jstree.actions.subitems.do_not_select,Không chọn phụ {{ itemsLabel }},Do Not Select Sub {{ itemsLabel }},0
jsmessages,oro.ui.jstree.actions.subitems.itemsLabel,Mặt hàng,Items,0
jsmessages,oro.ui.jstree.actions.subitems.select,Chọn Sub {{ itemsLabel }},Select Sub {{ itemsLabel }},0
jsmessages,oro.ui.jstree.move_node_error,Bạn không thể di chuyển nút {{ nodeText }} tại đây.,You can not move node {{ nodeText }} here.,0
jsmessages,oro.ui.jstree.no_node_selected_error,Bạn không chọn bất kỳ điểm nào,You didn't select any node,0
jsmessages,oro.ui.jstree.search.search_no_found,Không tìm thấy kết quả nào,No result was found,0
jsmessages,oro.ui.leave_page_save_data_or_discard,Bạn có các thay đổi chưa lưu. Bạn có muốn lưu chúng trước khi rời khỏi trang không?,You have unsaved changes. Do you want to save them before leaving the page?,0
jsmessages,oro.ui.leave_page_save_data_or_discard_title,Xác nhận điều hướng,Navigation confirmation,0
jsmessages,oro.ui.leave_page_with_unsaved_data_confirm,"Bạn có các thay đổi chưa lưu, bạn có chắc chắn muốn thoát khỏi trang này không?","You have unsaved changes, are you sure you want to leave this page?",0
jsmessages,oro.ui.page_header.button.more,Hơn,More,0
jsmessages,oro.ui.request_too_large_error,Thông tin bạn đang gửi không phù hợp với ô cửa ở phía máy chủ. Điều này có thể xảy ra do các hình ảnh có độ phân giải cực cao trong dữ liệu của bạn. Vui lòng thay thế thông tin đính kèm để giảm tổng kích thước dữ liệu hoặc trao đổi với quản trị viên của bạn để mở rộng ô cửa bằng cách cập nhật cấu hình máy chủ HTTP.,"The information you are submitting does not fit the doorway on the server side. This may happen due to the extremely high-resolution images in your data. Please replace the attached information to reduce the total data size, or talk to your admin to extend the doorway by updating HTTP server configuration.",0
jsmessages,oro.ui.select2.input_too_long,"{1} Vui lòng xóa {{ number }} ký tự |[2,Inf[Vui lòng xóa {{ number }} ký tự","{1}Please delete {{ number }} character|[2,Inf[Please delete {{ number }} characters",0
jsmessages,oro.ui.select2.input_too_short,"{1} Vui lòng nhập {{ number }} ký tự khác|[2,Inf[Vui lòng nhập {{ number }} ký tự khác","{1}Please enter {{ number }} more character|[2,Inf[Please enter {{ number }} more characters",0
jsmessages,oro.ui.select2.load_more,Đang tải thêm kết quả ...,Loading more results...,0
jsmessages,oro.ui.select2.selection_too_big,"{1} Bạn chỉ có thể chọn {{ limit }} mục|[2,Inf[Bạn chỉ có thể chọn {{ limit }} mục","{1}You can only select {{ limit }} item|[2,Inf[You can only select {{ limit }} items",0
jsmessages,oro.ui.timepicker.AM,SA,AM,0
jsmessages,oro.ui.timepicker.am,sa,am,0
jsmessages,oro.ui.timepicker.hr,giờ,hr,0
jsmessages,oro.ui.timepicker.hrs,giờ,hrs,0
jsmessages,oro.ui.timepicker.mins,phút,mins,0
jsmessages,oro.ui.timepicker.pm,CH,pm,0
jsmessages,oro.ui.timepicker.PM,ch,PM,0
jsmessages,oro.ui.unexpected_error,Một lỗi không mong muốn đã xảy ra. Hãy liên hệ với quản trị hệ thống.,An unexpected error has occurred. Please contact the system administrator.,0
jsmessages,oro.ui.unload_message.group_title,Máy chủ đang được cập nhật và các thay đổi sau có thể bị mất,Server is being updated and the following changes might be lost,0
jsmessages,oro.ui.unload_message.other,Khác,Other,0
jsmessages,oro.ui.unload_message.single,Các thay đổi đang được lưu và có thể bị mất,Changes are being saved and may be lost,0
jsmessages,oro.ui.widget_form_component.save_flash_success,đã lưu thành công,Saved successfully,0
jsmessages,oro.ui.widget_loading_failed,Tải nội dung phụ không thành công,Widget content loading failed,0
jsmessages,oro.user.apikey_gen.new_key.success,Tạo khóa đã thành công. Khóa mới: {{ new_api_key }},Generate key was successful. New key:{{ new_api_key }},0
jsmessages,oro.user.change_password.flash.success,Mật khẩu đã được thay đổi,The password has been changed,0
